{
    "variants":
     {
        "axis=x,age=0": { "model": "futurepack:block/0_fish_block", "x":90, "y":90},
		"axis=x,age=1": { "model": "futurepack:block/1_fish_block", "x":90, "y":90},
		"axis=x,age=2": { "model": "futurepack:block/2_fish_block", "x":90, "y":90},
		"axis=x,age=3": { "model": "futurepack:block/3_fish_block", "x":90, "y":90},
		
		"axis=y,age=0": { "model": "futurepack:block/0_fish_block" },
        "axis=y,age=1": { "model": "futurepack:block/1_fish_block" },
        "axis=y,age=2": { "model": "futurepack:block/2_fish_block" },
        "axis=y,age=3": { "model": "futurepack:block/3_fish_block" },
        
        "axis=z,age=0": { "model": "futurepack:block/0_fish_block", "x":-90},
        "axis=z,age=1": { "model": "futurepack:block/1_fish_block", "x":-90},
        "axis=z,age=2": { "model": "futurepack:block/2_fish_block", "x":-90},
        "axis=z,age=3": { "model": "futurepack:block/3_fish_block", "x":-90}
    }
}
