{
    "variants": {
        "lit=false,facing=north": { "model": "futurepack:block/industrieofen_aus", "y":0 },
        "lit=false,facing=east": { "model": "futurepack:block/industrieofen_aus", "y":90 },
        "lit=false,facing=south": { "model": "futurepack:block/industrieofen_aus", "y":180 },
        "lit=false,facing=west": { "model": "futurepack:block/industrieofen_aus", "y":270 },
        "lit=true,facing=north": { "model": "futurepack:block/industrieofen_an", "y":0 },
        "lit=true,facing=east": { "model": "futurepack:block/industrieofen_an", "y":90 },
        "lit=true,facing=south": { "model": "futurepack:block/industrieofen_an", "y":180 },
        "lit=true,facing=west": { "model": "futurepack:block/industrieofen_an", "y":270 }
    }
}
