{
    "variants": 
	{
        "powered=true,shape=north_south":{"model":"futurepack:block/monorail_waypoint_flat_on" ,"y": 0},
        "powered=true,shape=east_west":{"model":"futurepack:block/monorail_waypoint_flat_on","y": 90},
        "powered=true,shape=ascending_east":{"model":"futurepack:block/monorail_waypoint_raised_ne_on","y": 90},
        "powered=true,shape=ascending_west":{"model":"futurepack:block/monorail_waypoint_raised_sw_on","y": 90},
        "powered=true,shape=ascending_north":{"model":"futurepack:block/monorail_waypoint_raised_ne_on","y": 0},
        "powered=true,shape=ascending_south":{"model":"futurepack:block/monorail_waypoint_raised_sw_on","y": 0},

		"powered=false,shape=north_south":{"model":"futurepack:block/monorail_waypoint_flat_off" ,"y": 0},
        "powered=false,shape=east_west":{"model":"futurepack:block/monorail_waypoint_flat_off","y": 90},
        "powered=false,shape=ascending_east":{"model":"futurepack:block/monorail_waypoint_raised_ne_off","y": 90},
        "powered=false,shape=ascending_west":{"model":"futurepack:block/monorail_waypoint_raised_sw_off","y": 90},
        "powered=false,shape=ascending_north":{"model":"futurepack:block/monorail_waypoint_raised_ne_off","y": 0},
        "powered=false,shape=ascending_south":{"model":"futurepack:block/monorail_waypoint_raised_sw_off","y": 0}   		
    }
}
