{
    "multipart": [
        {   
        	"apply": { "model": "futurepack:block/pipe_main_normal" }
        },
        {
        	"when":  { "north": "on" },
            "apply": { "model": "futurepack:block/pipe_side_normal", "uvlock": false }
        },
        {   "when": { "east": "on" },
            "apply": { "model": "futurepack:block/pipe_side_normal", "y": 90, "uvlock": false }
        },
        {   "when": { "south": "on" },
            "apply": { "model": "futurepack:block/pipe_side_normal", "y": 180, "uvlock": false }
        },
        {   "when": { "west": "on" },
            "apply": { "model": "futurepack:block/pipe_side_normal", "y": 270, "uvlock": false }
        },
        {	"when": { "up": "on"},
        	"apply": { "model": "futurepack:block/pipe_side_normal", "x": 270 , "uvlock": false}
        },
        {	"when": { "down": "on"},
        	"apply": { "model": "futurepack:block/pipe_side_normal", "x": 90, "uvlock": false}
        }
    ]
}
