{
    "multipart": [
        {   "apply": { "model": "futurepack:block/cable_main_network" }},
        {   "when": { "north": "true" },
            "apply": { "model": "futurepack:block/cable_north_network", "uvlock": false }
        },
        {   "when": { "east": "true" },
            "apply": { "model": "futurepack:block/cable_north_network", "y": 90, "uvlock": false }
        },
        {   "when": { "south": "true" },
            "apply": { "model": "futurepack:block/cable_north_network", "y": 180, "uvlock": false }
        },
        {   "when": { "west": "true" },
            "apply": { "model": "futurepack:block/cable_north_network", "y": 270, "uvlock": false }
        },
        {	"when": { "up": "true"},
        	"apply": { "model": "futurepack:block/cable_north_network", "x": 270 , "uvlock": false}
        },
        {	"when": { "down": "true"},
        	"apply": { "model": "futurepack:block/cable_north_network", "x": 90, "uvlock": false}
        }
    ]
}
