{
    "parent": "block/inner_stairs",
    "textures": {
        "bottom": "futurepack:blocks/gitter_12",
        "top": "futurepack:blocks/gitter_12",
        "side": "futurepack:blocks/gitter_12"
    }
}
