{
    "parent": "block/inner_stairs",
    "textures": {
        "bottom": "futurepack:blocks/color_iron_14",
        "top": "futurepack:blocks/color_iron_14",
        "side": "futurepack:blocks/color_iron_14"
    }
}
