{
    "parent": "block/upper_slab",
    "textures": {
        "bottom": "futurepack:blocks/gitter_6",
        "top": "futurepack:blocks/gitter_6",
        "side": "futurepack:blocks/gitter_6"
    }
}
