{
    "parent": "block/outer_stairs",
    "textures": {
        "bottom": "futurepack:blocks/metal_block_gitter",
        "top": "futurepack:blocks/metal_block_gitter",
        "side": "futurepack:blocks/metal_block_gitter"
    }
}
