{
    "parent": "block/cube",
    "textures": {
        "down": "futurepack:blocks/tyroswood_top",
		"up": "futurepack:blocks/tyroswood_top",
		"north": "futurepack:blocks/tyroswood",
		"east": "futurepack:blocks/tyroswood",
		"west": "futurepack:blocks/tyroswood",
		"south": "futurepack:blocks/tyroswood",
		"particle": "futurepack:blocks/tyroswood"
    }
}
