{
  "display": {
    "icon": {
      "item": "futurepack:crystal_alutin"
    },
    "title": {
      "translate": "advancements.futurepack.crys_alutin.title"
    },
    "description": {
      "translate": "advancements.futurepack.crys_alutin.description"
    }
  },
  "parent": "futurepack:root",
  "criteria": {
    "alutin": {
      "trigger": "minecraft:inventory_changed",
      "conditions": {
        "items": [
          {
            "items": [ "futurepack:crystal_alutin" ]
          }
        ]
      }
    }
  },
  "requirements": [
  	["alutin"]
  ]
}