{
  "display": {
    "icon": {
      "item": "futurepack:escanner"
    },
    "title": {
      "translate": "advancements.futurepack.the_impalpable.title"
    },
    "description": {
      "translate": "advancements.futurepack.the_impalpable.description"
    }
  },
  "parent": "futurepack:root",
  "criteria": {
    "escanner": {
      "trigger": "minecraft:inventory_changed",
      "conditions": {
        "items": [
          {
            "items": [ "futurepack:escanner" ]
          }
        ]
      }
    }
  },
  "requirements": [
  	["escanner"]
  ]
}