{
    "pools": 
    [
        {
            "name":"bats",
            "rolls": 
            {
                "min": 1,
                "max": 2
            },
            "entries": 
            [
                {
                    "type": "minecraft:item",
                    "name": "futurepack:battery_neon",
                    "weight": 100,
                    "functions": 
                    [
                        {
                            "function": "fp_setup_battery"
                        }
                    ]
                }        
            ]
        }
    ]
}