{
    "pools": 
    [
        {
            "name":"common_scrab",
            "rolls": 1,
            "entries": 
            [
                {
                    "type": "loot_table",
                    "name": "futurepack:chests/loots/commen_electronic_scrab_1",
                    "weight": 100
                }        
            ]
        },
		{
            "name":"fragments",
            "rolls": 3,
            "entries": 
            [
                {
                    "type": "loot_table",
                    "name": "futurepack:chests/loots/electronic_fragments",
                    "weight": 100
                }        
            ]
        },
		{
            "name":"rare_things",
            "rolls": 2,
            "entries": 
            [
				{
                    "type": "minecraft:loot_table",
                    "name": "futurepack:chests/loots/rare_things",
					"weight": 50
                },
                {
                    "type":"empty",
                    "weight":50
                }	
            ]
        },
		{
            "name":"common_things",
            "rolls": 1,
            "entries": 
            [
                {
                    "type": "loot_table",
                    "name": "futurepack:chests/loots/common_things_3",
                    "weight": 100
                }        
            ]
        }
    ]
}