{
    "pools": 
    [
		{
            "name":"default",
            "rolls": 1,
            "entries": 
            [
				{
                    "type": "item",
                    "name": "futurepack:record_fp_entros",
                    "weight": 65
                },
                {
                    "type":"empty",
                    "weight":45
                }
            ]
        },
        {
            "name":"default",
            "rolls": 3,
            "entries": 
            [
                {
                    "type": "loot_table",
                    "name": "futurepack:chests/loots/science_things",
                    "weight": 100
                }
            ]
        },
		{
            "name":"default",
            "rolls": 3,
            "entries": 
            [
                {
                    "type": "loot_table",
                    "name": "futurepack:chests/loots/rare_things",
                    "weight": 100
                }
            ]
        },
		{
            "name":"fragments",
            "rolls": 3,
            "entries": 
            [
                {
                    "type": "loot_table",
                    "name": "futurepack:chests/loots/electronic_fragments",
                    "weight": 100
                }        
            ]
        }
    ]
}