{
	"_version": 1.13,
    "pools": 
    [
        {
            "name":"tec_dungeon",
            "rolls": 1,
            "entries": 
            [
                {
                    "type": "loot_table",
                    "name": "futurepack:chests/tec_dungeon",
                    "weight": 100
                }        
            ]
        },
		{
            "name":"escanner",
            "rolls": 1,
            "entries": 
            [
                 {
                    "type": "item",
                    "name": "futurepack:escanner",
                    "weight": 100
                }    
            ]
        }
    ]
}