{
  "type": "futurepack:research_shaped",
  "group": "futurepack",
  "pattern": [
    "BMB",
    "NTN",
    "KCK"
  ],
  "key": {
    "B": {
      "item": "futurepack:battery_l"
    },
    "M": {
      "item": "futurepack:display"
    },
    "N": {
      "item": "futurepack:chip_navigation"
    },
    "K": {
      "item": "minecraft:map"
    },
    "C": {
      "item": "futurepack:core_p2"
    },
    "T": {
      "item": "futurepack:modul_1_gray"
    }
  },
  "result": {
    "item": "futurepack:board_computer_gray"
  }
}