{
  "type": "futurepack:maschin_shaped",
  "group": "futurepack",
  "pattern": [
    "CMC",
    "CEC",
    "VBV"
  ],
  "key": {
    "C": {
      "item": "futurepack:coil_copper"
    },
    "M": {
      "tag": "forge:blocks/iron"
    },
    "E": {
      "item": "futurepack:color_iron_black"
    },
    "B": {
      "item": "futurepack:maschineboard"
    },
    "V": {
      "item": "futurepack:composite_metal"
    }
  },
  "result": {
    "item": "futurepack:electro_magnet"
  }
}