{
  "type": "minecraft:crafting_shapeless",
  "group": "futurepack",
  "ingredients": [
    {
      "item": "futurepack:peakhead"
    },
    {
      "item": "futurepack:blueshroom"
    },
    {
      "item": "minecraft:bowl"
    }
  ],
  "result": {
    "item": "futurepack:glowshroom_raw",
    "count": 1
  }
}