{
  "type": "futurepack:research_shapeless",
  "group": "futurepack",
  "ingredients": [
    {
      "tag": "futurepack:crystals"
    },
    {
      "item": "futurepack:chip_logic"
    }
  ],
  "result": {
    "item": "futurepack:item_filter"
  }
}