{
  "type": "minecraft:crafting_shaped",
  "group": "futurepack",
  "pattern": [
    "E"
  ],
  "key": {
    "E": {
      "item": "futurepack:block_zinc"
    }
  },
  "result": {
    "item": "futurepack:ingot_zinc",
    "count": 9
  }
}