{
  "type": "futurepack:maschin_shaped",
  "group": "futurepack",
  "pattern": [
    "ILT",
    "TMT",
    "CFC"
  ],
  "key": {
    "L": {
      "item": "futurepack:color_iron_light_gray"
    },
    "I": {
      "item": "futurepack:tin_graphene_katalysator"
    },
    "F": {
      "item": "futurepack:fluid_tube"
    },
    "T": {
      "item": "futurepack:lack_tank_empty"
    },
    "M": {
      "item": "futurepack:maschineboard"
    },
    "C": {
      "tag": "forge:ingots/composite_metal"
    }
  },
  "result": {
    "item": "futurepack:life_support_system_gray",
    "count": 1
  }
}