{
  "type": "futurepack:research_shaped",
  "group": "futurepack",
  "pattern": [
    "PFP",
    "T T",
    "T T"
  ],
  "key": {
    "F": {
      "item": "futurepack:fluid_tube"
    },
    "P": {
      "item": "futurepack:polymer"
    },
    "T": {
      "item": "futurepack:lack_tank_empty"
    }
  },
  "result": {
    "item": "futurepack:modul_oxygen_tank"
  }
}