{
  "type": "futurepack:research_shaped",
  "group": "futurepack",
  "pattern": [
    "TDT",
    "SMS",
    "NEN"
  ],
  "key": {
    "T": {
      "item": "futurepack:parts_gold"
    },
    "D": {
      "item": "futurepack:scrench"
    },
    "S": {
      "item": "futurepack:ingot_silicon"
    },
    "M": {
      "item": "futurepack:color_iron_black"
    },
    "E": {
      "item": "minecraft:enchanting_table"
    },
    "N": {
      "tag": "forge:ingots/neodymium"
    }
  },
  "result": {
    "item": "futurepack:modul_3_black"
  }
}