{
  "type": "futurepack:research_shaped",
  "group": "futurepack",
  "pattern": [
    " C ",
    "IWR",
    " C "
  ],
  "key": {
    "C": {
      "item": "futurepack:monorail"
    },
    "R": {
      "tag": "forge:dusts/redstone"
    },
    "W": {
      "item": "futurepack:wire_normal"
    },
    "I": {
      "item": "futurepack:chip_industrie"
    }
  },
  "result": {
    "item": "futurepack:monorail_charger"
  }
}