{
  "type": "futurepack:research_shaped",
  "group": "futurepack",
  "pattern": [
    " C ",
    "TZT",
    "TZT"
  ],
  "key": {
    "C": {
      "item": "futurepack:parts_copper"
    },
    "T": {
      "tag": "forge:ingots/tin"
    },
    "Z": {
      "tag": "forge:ingots/zinc"
    }
  },
  "result": {
    "item": "futurepack:battery_n",
    "nbt": {
      "neon": {
        "maxNE": 1000,
        "ne": 0
      }
    }
  }
}