{
  "type": "futurepack:research_shaped",
  "group": "futurepack",
  "pattern": [
    " R ",
    "PPP"
  ],
  "key": {
    "R": {
      "tag": "forge:dusts/redstone"
    },
    "P": {
      "item": "futurepack:pipe_normal"
    }
  },
  "result": {
    "item": "futurepack:pipe_redstone",
    "count": 3
  }
}