{
  "type": "futurepack:research_shaped",
  "group": "futurepack",
  "pattern": [
    " L ",
    "TGT",
    "TGT"
  ],
  "key": {
    "T": {
      "tag": "forge:ingots/tin"
    },
    "G": {
      "tag": "forge:gunpowder"
    },
    "L": {
      "item": "futurepack:chip_logic"
    }
  },
  "result": {
    "item": "futurepack:rocket"
  }
}