{
  "type": "futurepack:research_shaped",
  "group": "futurepack",
  "pattern": [
    " G ",
    " G ",
    " H "
  ],
  "key": {
    "G": {
      "tag": "forge:ingots/glowtite"
    },
    "H": {
      "item": "futurepack:sword_handle"
    }
  },
  "result": {
    "item": "futurepack:sword_glowtite"
  }
}