{
  "type": "futurepack:research_shaped",
  "group": "futurepack",
  "pattern": [
    "TNT",
    "WWW"
  ],
  "key": {
    "W": [
      {
        "item": "futurepack:wire_normal"
      }
    ],
    "T": [
      {
        "item": "futurepack:parts_copper"
      }
    ],
    "N": [
      {
        "tag": "forge:ingots/neon"
      }
    ]
  },
  "result": {
    "item": "futurepack:wire_super",
    "count": 3
  }
}