{
    "variants": {
        "growth=small,type=neon": { "model": "futurepack:kristall" },
        "growth=bottom,type=neon": { "model": "futurepack:kristall_bottom" },
        "growth=top,type=neon": { "model": "futurepack:kristall_top" },
        "growth=small,type=retium": { "model": "futurepack:kristall_red" },
        "growth=bottom,type=retium": { "model": "futurepack:kristall_bottom_red" },
        "growth=top,type=retium": { "model": "futurepack:kristall_top_red" },
        "growth=small,type=glowtit": { "model": "futurepack:kristall_gelb" },
        "growth=bottom,type=glowtit": { "model": "futurepack:kristall_bottom_gelb" },
        "growth=top,type=glowtit": { "model": "futurepack:kristall_top_gelb" },
        "growth=small,type=bioterium": { "model": "futurepack:kristall_bioterium" },
        "growth=bottom,type=bioterium": { "model": "futurepack:kristall_bottom_bioterium" },
        "growth=top,type=bioterium": { "model": "futurepack:kristall_top_bioterium" },
        "growth=small,type=alutin": { "model": "futurepack:kristall_alutin" },
        "growth=bottom,type=alutin": { "model": "futurepack:kristall_bottom_alutin" },
        "growth=top,type=alutin": { "model": "futurepack:kristall_top_alutin" }
    }
}
