{
    "forge_marker": 1,
    "defaults": {
        "textures": {
            "texture": "futurepack:blocks/metal_block"
        }
    },
    "variants":
    {
        "facing":
        {
            "north":{"y":180},
            "east":{"y":270},
            "south":{"y":0},
            "west":{"y":90}
        },
        "open":
        {
            "true": { "model":"fence_gate_open" },
            "false": { "model":"fence_gate_closed" }
        },     
        "powered":{
            "true":{},
            "false":{}
        }
    }
}

