{
    "variants": {
        "metadata=0": { "model": "futurepack:neon_brick" },
        "metadata=1": { "model": "futurepack:retium_brick" },
        "metadata=2": { "model": "futurepack:glowtit_brick" },
        "metadata=3": { "model": "futurepack:bioterium_brick" },
		"metadata=4": { "model": "futurepack:wakurum_brick" },
		"metadata=5": { "model": "futurepack:quantanium_brick" }
    }
}
