{
    "variants": {
        "metadata=0": {"model": "futurepack:spacedoor"},
		"metadata=1": {"model": "futurepack:spacedoor"},
        "metadata=2": {"model": "futurepack:spacedoor"},
		"metadata=3": {"model": "futurepack:spacedoor"},
		"metadata=4": {"model": "futurepack:spacedoor"},
		"metadata=5": {"model": "futurepack:spacedoor"},
		"metadata=6": {"model": "futurepack:spacedoor"},
		"metadata=7": {"model": "futurepack:spacedoor"},
		"metadata=8": {"model": "futurepack:spacedoor"},
		"metadata=9": {"model": "futurepack:spacedoor"},
		"metadata=10": {"model": "futurepack:spacedoor"},
		"metadata=11": {"model": "futurepack:spacedoor"},
		"metadata=12": {"model": "futurepack:spacedoor"},
		"metadata=13": {"model": "futurepack:spacedoor"},
		"metadata=14": {"model": "futurepack:spacedoor"},
		"metadata=15": {"model": "futurepack:spacedoor"}					
    }
}
