{
    "variants": {
        "metadata=0": { "model": "futurepack:mushroom"},
		"metadata=1": { "model": "futurepack:mushroom_up_north_west"},
		"metadata=2": { "model": "futurepack:mushroom_up_north"},
		"metadata=3": { "model": "futurepack:mushroom_up_north_east"},
		"metadata=4": { "model": "futurepack:mushroom_up_west"},		
		"metadata=5": { "model": "futurepack:mushroom_up"},
		"metadata=6": { "model": "futurepack:mushroom_up_east"},
		"metadata=7": { "model": "futurepack:mushroom_up_south_west"},
		"metadata=8": { "model": "futurepack:mushroom_up_south"},
		"metadata=9": { "model": "futurepack:mushroom_up_south_east"},
		"metadata=10": { "model": "futurepack:mushroom_stem"},		
		"metadata=11": { "model": "futurepack:mushroom_all"}
    }
}
