{
    "type": "botanypots:crop",
    "conditions": [
        {
            "type": "forge:mod_loaded",
            "modid": "botanypots"
        }
    ],
    "seed": {
        "item": "futurepack:sapling_tyros"
    },
    "categories": [
        "dirt"
    ],
    "growthTicks": 2400,
    "display": {
        "block": "futurepack:sapling_tyros"
    },
    "results": [
        {
            "chance": 0.5,
            "output": {
                "item": "futurepack:log_tyros"
            },
            "minRolls": 1,
            "maxRolls": 1
        },
        {
            "chance": 0.1,
            "output": {
                "item": "minecraft:stick"
            },
            "minRolls": 1,
            "maxRolls": 2
        },
        {
            "chance": 0.01,
            "output": {
                "item": "futurepack:glowmelo"
            },
            "minRolls": 1,
            "maxRolls": 1
        },
        {
            "chance": 0.05,
            "output": {
                "item": "futurepack:sapling_tyros"
            },
            "minRolls": 1,
            "maxRolls": 2
        }
    ]
}