[
  {
    "id": "log.itempipe",
    "page": "logistic",
    "x": -4,
    "y": -4,
    "parents": [
      "itemlogistik"
    ],
    "aspects": [],
    "level": 0,
    "time": 0,
    "need": [],
    "icon": {
      "name": "futurepack:pipe_normal"
    },
    "enables": [
      {
        "name": "futurepack:pipe_normal"
      }
    ]
  },
  {
    "id": "log.neonpipe",
    "page": "logistic",
    "x": -3,
    "y": -3,
    "parents": [
      "log.itempipe"
    ],
    "aspects": [
      "logistik",
      "energieverbindung"
    ],
    "level": 0,
    "time": 400,
    "need": [
      {
        "size": 8,
        "name": "futurepack:pipe_normal"
      }
    ],
    "icon": {
      "name": "futurepack:pipe_neon"
    },
    "enables": [
      {
        "name": "futurepack:pipe_neon"
      }
    ],
	"rewards":
	[
	  {
        "size": 8,
        "name": "futurepack:pipe_neon"
      }
	]
  },
  {
    "id": "log.redstonepipe",
    "page": "logistic",
    "x": -2,
    "y": -3,
    "parents": [
      "log.itempipe"
    ],
    "aspects": [
      "geologie",
      "energieverbindung"
    ],
    "level": 1,
    "time": 1200,
    "neon": 600,
    "need": [
      {
        "size": 8,
        "tag": "forge:dusts/redstone"
      },
      {
        "size": 2,
        "name": "futurepack:pipe_normal"
      }
    ],
    "icon": {
      "name": "futurepack:pipe_redstone"
    },
    "enables": [
      {
        "name": "futurepack:pipe_redstone"
      }
    ],
	"rewards":
	[
	  {
        "size": 8,
        "name": "futurepack:pipe_redstone"
      }
	]
  },
  {
    "id": "log.supportpipe",
    "page": "logistic",
    "x": -1,
    "y": -3,
    "parents": [
      "log.itempipe",
      "surveyscan.menelaus"
    ],
    "aspects": [
      "energieverbindung",
      "metallurgie",
      "logistik"
    ],
    "level": 2,
    "time": 1200,
    "neon": 76800,
    "support": 40,
    "need": [
      {
        "size": 4,
        "name": "futurepack:pipe_normal"
      },
      {
        "size": 2,
        "tag": "forge:ingots/glowtite"
      },
      {
        "size": 4,
        "tag": "forge:ingots/neon"
      }
    ],
    "icon": {
      "name": "futurepack:pipe_support"
    },
    "enables": [
      {
        "name": "futurepack:pipe_support"
      }
    ],
	"rewards":
	[
	  {
        "size": 8,
        "name": "futurepack:pipe_support"
      }
	]
  },
  {
    "id": "log.pusher",
    "page": "logistic",
    "x": 0,
    "y": -3,
    "parents": [
      "log.itempipe"
    ],
    "aspects": [
      "maschinenbau",
      "logistik"
    ],
    "level": 0,
    "time": 600,
    "need": [
      {
        "size": 2,
        "name": "minecraft:dispenser"
      }
    ],
    "icon": {
      "name": "futurepack:pusher"
    },
    "enables": [
      {
        "name": "futurepack:pusher"
      }
    ],
	"rewards":
	[
	  {
        "size": 2,
        "name": "futurepack:pusher"
      }
	]
  },
  {
    "id": "log.sorter",
    "page": "logistic",
    "x": 0,
    "y": -2,
    "parents": [
      "log.pusher",
      "upgradeT2"
    ],
    "aspects": [
      "maschinenbau",
      "logistik",
      "neonenergie"
    ],
    "level": 2,
    "time": 1200,
    "neon": 7200,
    "support": 20,
    "need": [
      {
        "size": 1,
        "name": "futurepack:pusher"
      },
      {
        "size": 8,
        "name": "futurepack:pipe_normal"
      },
      {
        "size": 4,
        "name": "minecraft:comparator"
      }
    ],
    "icon": {
      "name": "futurepack:sorter"
    },
    "enables": [
      {
        "name": "futurepack:sorter"
      }
    ],
	"rewards":
	[
	  {
        "size": 1,
        "name": "futurepack:sorter"
      }
	]
  },
  {
    "id": "log.insert_node",
    "page": "logistic",
    "x": -3,
    "y": -5,
    "parents": [
      "log.itempipe"
    ],
    "aspects": [
      "logistik",
      "maschinenbau"
    ],
    "level": 1,
    "time": 600,
    "neon": 1200,
    "need": [
      {
        "size": 4,
        "name": "futurepack:pipe_normal"
      },
      {
        "size": 1,
        "name": "minecraft:hopper"
      }
    ],
    "icon": {
      "name": "futurepack:insert_node"
    },
    "enables": [
      {
        "name": "futurepack:insert_node"
      }
    ],
	"rewards":
	[
	  {
        "size": 1,
        "name": "futurepack:insert_node"
      }
	]
  },
  {
    "id": "log.cable",
    "page": "logistic",
    "x": -4,
    "y": -1,
    "parents": [
      "energielogistik"
    ],
    "aspects": [],
    "level": 0,
    "time": 0,
    "need": [],
    "icon": {
      "name": "futurepack:wire_normal"
    },
    "enables": [
      {
        "name": "futurepack:wire_normal"
      }
    ]
  },
  {
    "id": "log.supercable",
    "page": "logistic",
    "x": -3,
    "y": 0,
    "parents": [
      "log.cable",
      "ionentechnik"
    ],
    "aspects": [
      "energieverbindung",
      "metallurgie",
      "neonenergie"
    ],
    "level": 2,
    "time": 200,
    "neon": 1000000,
    "support": 40,
    "need": [
      {
        "size": 4,
        "name": "futurepack:wire_normal"
      },
      {
        "size": 4,
        "tag": "forge:ingots/neon"
      },
      {
        "size": 4,
        "tag": "forge:ingots/copper"
      }
    ],
    "icon": {
      "name": "futurepack:wire_super"
    },
    "enables": [
      {
        "name": "futurepack:wire_super"
      }
    ],
	"rewards":
	[
	  {
        "size": 8,
        "name": "futurepack:wire_super"
      }
	]
  },
  {
    "id": "log.redstonecable",
    "page": "logistic",
    "x": -2,
    "y": 0,
    "parents": [
      "log.cable"
    ],
    "aspects": [
      "geologie",
      "energieverbindung"
    ],
    "level": 1,
    "time": 1200,
    "neon": 600,
    "need": [
      {
        "size": 8,
        "tag": "forge:dusts/redstone"
      },
      {
        "size": 2,
        "name": "futurepack:wire_normal"
      }
    ],
    "icon": {
      "name": "futurepack:wire_redstone"
    },
    "enables": [
      {
        "name": "futurepack:wire_redstone"
      }
    ],
	"rewards":
	[
	  {
        "size": 8,
        "name": "futurepack:wire_redstone"
      }
	]
  },
  {
    "id": "log.supportcable",
    "page": "logistic",
    "x": -1,
    "y": 0,
    "parents": [
      "log.cable",
      "surveyscan.menelaus"
    ],
    "aspects": [
      "energieverbindung",
      "metallurgie",
      "logistik"
    ],
    "level": 2,
    "time": 1200,
    "neon": 76800,
    "support": 40,
    "need": [
      {
        "size": 4,
        "name": "futurepack:wire_normal"
      },
      {
        "size": 2,
        "tag": "forge:ingots/glowtite"
      },
      {
        "size": 4,
        "tag": "forge:ingots/neon"
      }
    ],
    "icon": {
      "name": "futurepack:wire_support"
    },
    "enables": [
      {
        "name": "futurepack:wire_support"
      }
    ],
	"rewards":
	[
	  {
        "size": 8,
        "name": "futurepack:wire_support"
      }
	]
  },
  {
    "id": "log.networkcable",
    "page": "logistic",
    "x": 0,
    "y": 0,
    "parents": [
      "log.cable",
      "netzwerke"
    ],
    "aspects": [],
    "level": 0,
    "time": 0,
    "need": [],
    "icon": {
      "name": "futurepack:wire_network"
    },
    "enables": [
      {
        "name": "futurepack:wire_network"
      }
    ],
	"rewards":
	[
	  {
        "size": 8,
        "name": "futurepack:wire_network"
      }
	]
  },
  {
    "id": "log.laser",
    "page": "logistic",
    "x": 0,
    "y": 1,
    "parents": [
      "log.networkcable"
    ],
    "aspects": [
      "neonenergie",
      "maschinenbau",
      "thermodynamic",
      "metallurgie"
    ],
    "level": 2,
    "time": 1200,
    "neon": 144000,
    "support": 160,
    "need": [
      {
        "size": 4,
        "name": "futurepack:wire_network"
      },
      {
        "size": 6,
        "name": "futurepack:metal_fence"
      },
      {
        "size": 1,
        "name": "futurepack:lense_red"
      }
    ],
    "icon": {
      "name": "futurepack:laser_transmitter"
    },
    "enables": [
      {
        "name": "futurepack:laser_transmitter"
      },
      {
        "name": "futurepack:antenna_white"
      },
      {
        "name": "futurepack:antenna_gray"
      },
      {
        "name": "futurepack:antenna_black"
      }
    ],
	"rewards":
	[
	  {
        "size": 2,
        "name": "futurepack:laser_transmitter"
      }
	]
  },
  {
    "id": "log.tube",
    "page": "logistic",
    "x": -4,
    "y": 3,
    "parents": [
      "fluidlogistik"
    ],
    "aspects": [],
    "level": 0,
    "time": 0,
    "need": [],
    "icon": {
      "name": "futurepack:fluid_tube"
    },
    "enables": [
      {
        "name": "futurepack:fluid_tube"
      }
    ]
  },
  {
    "id": "log.tank",
    "page": "logistic",
    "x": -3,
    "y": 4,
    "parents": [
      "log.tube"
    ],
    "aspects": [],
    "level": 0,
    "time": 0,
    "need": [],
    "icon": {
      "name": "futurepack:fluid_tank"
    },
    "enables": [
      {
        "name": "futurepack:fluid_tank"
      }
    ]
  },
  {
    "id": "log.pump",
    "page": "logistic",
    "x": -2,
    "y": 4,
    "parents": [
      "log.tube"
    ],
    "aspects": [
      "hydraulic",
      "maschinenbau",
      "neonenergie"
    ],
    "level": 1,
    "time": 1200,
    "neon": 600,
    "need": [
      {
        "size": 4,
        "name": "futurepack:fluid_tube"
      },
      {
        "size": 2,
        "name": "futurepack:coil_copper"
      }
    ],
    "icon": {
      "name": "futurepack:fluid_pump"
    },
    "enables": [
      {
        "name": "futurepack:fluid_pump"
      }
    ],
	"rewards":
	[
	  {
        "size": 1,
        "name": "futurepack:fluid_pump"
      }
	]
  },
  {
    "id": "log.intake",
    "page": "logistic",
    "x": -2,
    "y": 5,
    "parents": [
      "log.pump"
    ],
    "aspects": [
      "hydraulic"
    ],
    "level": 1,
    "time": 600,
    "neon": 4800,
    "need": [
      {
        "size": 1,
        "name": "futurepack:fluid_tank"
      },
      {
        "size": 2,
        "name": "futurepack:metal_block_gitter"
      }
    ],
    "icon": {
      "name": "futurepack:fluid_intake"
    },
    "enables": [
      {
        "name": "futurepack:fluid_intake"
      }
    ],
	"rewards":
	[
	  {
        "size": 1,
        "name": "futurepack:fluid_intake"
      }
	]
  },
  {
    "id": "log.flash.1",
    "page": "logistic",
    "x": 2,
    "y": -3,
    "parents": [
      "ai"
    ],
    "aspects": [],
    "level": 0,
    "time": 0,
    "need": [],
    "icon": {
      "name": "futurepack:aiflash0"
    },
    "enables": [
      {
        "name": "futurepack:aiflash0"
      }
    ]
  },
  {
    "id": "log.flash.2",
    "page": "logistic",
    "x": 3,
    "y": -3,
    "parents": [
      "log.flash.1",
      "aispeicher"
    ],
    "aspects": [
      "geologie",
      "maschinenbau"
    ],
    "level": 2,
    "time": 1200,
    "neon": 600,
    "support": 150,
    "need": [
      {
        "size": 1,
        "name": "futurepack:chip_logic"
      },
      {
        "size": 2,
        "name": "minecraft:obsidian"
      },
      {
        "size": 8,
        "tag": "forge:dusts/redstone"
      }
    ],
    "icon": {
      "name": "futurepack:aiflash1"
    },
    "enables": [
      {
        "name": "futurepack:aiflash1"
      }
    ],
	"rewards":
	[
	  {
        "size": 1,
        "name": "futurepack:aiflash1"
      },
	  {
        "size": 1,
        "name": "futurepack:aiflash1"
      }
	]
  },
  {
    "id": "log.flash.3",
    "page": "logistic",
    "x": 4,
    "y": -3,
    "parents": [
      "log.flash.2"
    ],
    "aspects": [
      "thermodynamic",
      "maschinenbau"
    ],
    "level": 2,
    "time": 2400,
    "neon": 2400,
    "support": 300,
    "need": [
      {
        "size": 1,
        "name": "futurepack:chip_logic"
      },
      {
        "size": 4,
        "tag": "forge:ingots/neon"
      },
      {
        "size": 16,
        "tag": "forge:dusts/glowstone"
      }
    ],
    "icon": {
      "name": "futurepack:aiflash2"
    },
    "enables": [
      {
        "name": "futurepack:aiflash2"
      }
    ],
	"rewards":
	[
	  {
        "size": 1,
        "name": "futurepack:aiflash2"
      },
	  {
        "size": 1,
        "name": "futurepack:aiflash2"
      }
	]
  },
  {
    "id": "log.flashserver",
    "page": "logistic",
    "x": 4,
    "y": -2,
    "parents": [
      "log.flash.3",
      "surveyscan.menelaus"
    ],
    "aspects": [
      "maschinenbau",
      "logistik",
      "energieverbindung"
    ],
    "level": 2,
    "time": 1500,
    "neon": 9600,
    "support": 400,
    "need": [
      {
        "size": 1,
        "name": "futurepack:chip_logic"
      },
      {
        "size": 1,
        "name": "futurepack:aiflash2"
      },
      {
        "size": 4,
        "tag": "forge:ingots/aluminum"
      }
    ],
    "icon": {
      "name": "futurepack:flash_server_white"
    },
    "enables": [
      {
        "name": "futurepack:flash_server_white"
      },
      {
        "name": "futurepack:flash_server_gray"
      },
      {
        "name": "futurepack:flash_server_black"
      }
    ],
	"rewards":
	[
	  {
        "size": 1,
        "name": "futurepack:aiflash2"
      },
	  {
        "size": 1,
        "name": "futurepack:aiflash2"
      },
	  {
        "size": 1,
        "name": "futurepack:aiflash2"
      },
	  {
        "size": 1,
        "name": "futurepack:aiflash2"
      }
	]
  },
  {
    "id": "log.flash.4",
    "page": "logistic",
    "x": 5,
    "y": -3,
    "parents": [
      "log.flash.3",
      "surveyscan.menelaus"
    ],
    "aspects": [
      "thermodynamic",
      "maschinenbau",
      "neonenergie"
    ],
    "level": 2,
    "time": 4800,
    "neon": 19200,
    "support": 600,
    "need": [
      {
        "size": 1,
        "name": "futurepack:chip_logic"
      },
      {
        "size": 1,
        "name": "futurepack:laserdiode"
      },
      {
        "size": 16,
        "tag": "forge:gems/glowtite"
      }
    ],
    "icon": {
      "name": "futurepack:aiflash3"
    },
    "enables": [
      {
        "name": "futurepack:aiflash3"
      }
    ],
	"rewards":
	[
	  {
        "size": 1,
        "name": "futurepack:aiflash3"
      },
	  {
        "size": 1,
        "name": "futurepack:aiflash3"
      }
	]
  },
  {
    "id": "log.flash.5",
    "page": "logistic",
    "x": 6,
    "y": -3,
    "parents": [
      "log.flash.4",
      "upgradeT3"
    ],
    "aspects": [
      "chemie",
      "morphologie",
      "maschinenbau"
    ],
    "level": 3,
    "time": 9600,
    "neon": 38400,
    "support": 1200,
    "expLvl": 200,
    "need": [
      {
        "size": 1,
        "name": "futurepack:chip_logic"
      },
      {
        "size": 2,
        "tag": "forge:gems/emerald"
      },
      {
        "size": 8,
        "tag": "forge:ingots/rare_earth"
      },
      {
        "size": 8,
        "tag": "forge:ingots/magnetite"
      }
    ],
    "icon": {
      "name": "futurepack:aiflash4"
    },
    "enables": [
      {
        "name": "futurepack:aiflash4"
      }
    ],
	"rewards":
	[
	  {
        "size": 1,
        "name": "futurepack:aiflash4"
      },
	  {
        "size": 1,
        "name": "futurepack:aiflash4"
      }
	]
  },
  {
    "id": "log.flash.6",
    "page": "logistic",
    "x": 7,
    "y": -3,
    "parents": [
      "log.flash.5",
      "quantentechnik"
    ],
    "aspects": [
      "biologie",
      "maschinenbau",
      "morphologie"
    ],
    "level": 3,
    "time": 9600,
    "neon": 76800,
    "support": 2400,
    "expLvl": 400,
    "need": [
      {
        "size": 1,
        "name": "futurepack:chip_logic"
      },
      {
        "size": 8,
        "tag": "forge:ingots/bioterium"
      },
      {
        "size": 8,
        "tag": "forge:ingots/quantanium"
      },
      {
        "size": 1,
        "name": "futurepack:core_master"
      }
    ],
    "icon": {
      "name": "futurepack:aiflash5"
    },
    "enables": [
      {
        "name": "futurepack:aiflash5"
      }
    ],
	"rewards":
	[
	  {
        "size": 1,
        "name": "futurepack:aiflash5"
      },
	  {
        "size": 1,
        "name": "futurepack:aiflash5"
      }
	]
  },
  {
    "id": "log.battery.normal",
    "page": "logistic",
    "x": 2,
    "y": 0,
    "parents": [
      "energiespeicher"
    ],
    "aspects": [],
    "level": 0,
    "time": 0,
    "need": [],
    "icon": {
      "name": "futurepack:battery_box_white"
    },
    "enables": [
      {
        "name": "futurepack:battery_box_white"
      },
      {
        "name": "futurepack:battery_n"
      },
      {
        "size": 1,
        "name": "futurepack:battery_box_gray"
      },
      {
        "size": 1,
        "name": "futurepack:battery_box_black"
      }
    ]
  },
  {
    "id": "log.battery.large",
    "page": "logistic",
    "x": 3,
    "y": 0,
    "parents": [
      "log.battery.normal"
    ],
    "aspects": [
      "metallurgie",
      "energieverbindung",
      "logistik"
    ],
    "level": 1,
    "time": 2400,
    "neon": 2400,
    "need": [
      {
        "size": 5,
        "tag": "forge:ingots/tin"
      },
      {
        "size": 5,
        "tag": "forge:dusts/redstone"
      }
    ],
    "icon": {
      "name": "futurepack:battery_l"
    },
    "enables": [
      {
        "name": "futurepack:battery_l"
      }
    ],
	"rewards":
	[
	  {
        "size": 1,
        "name": "futurepack:battery_l"
      },
	  {
        "size": 1,
        "name": "futurepack:battery_l"
      }
	]
  },
  {
    "id": "log.battery.neon",
    "page": "logistic",
    "x": 4,
    "y": 0,
    "parents": [
      "log.battery.large",
      "upgradeT2"
    ],
    "aspects": [
      "neonenergie",
      "morphologie",
      "logistik"
    ],
    "level": 2,
    "time": 2400,
    "neon": 9600,
    "support": 40,
    "need": [
      {
        "size": 5,
        "tag": "forge:ingots/neon"
      },
      {
        "size": 10,
        "name": "futurepack:parts_neon"
      },
      {
        "size": 4,
        "name": "futurepack:coil_neon"
      }
    ],
    "icon": {
      "name": "futurepack:battery_neon"
    },
    "enables": [
      {
        "name": "futurepack:battery_neon"
      }
    ],
	"rewards":
	[
	  {
        "size": 1,
        "name": "futurepack:battery_neon"
      },
	  {
        "size": 1,
        "name": "futurepack:battery_neon"
      }
	]
  },
  {
    "id": "log.battery.cell",
    "page": "logistic",
    "x": 5,
    "y": 0,
    "parents": [
      "log.battery.neon",
      "surveyscan.menelaus"
    ],
    "aspects": [
      "neonenergie",
      "chemie",
      "metallurgie"
    ],
    "level": 2,
    "time": 1200,
    "neon": 115200,
    "support": 120,
    "need": [
      {
        "size": 4,
        "tag": "forge:ingots/lithium"
      },
      {
        "size": 2,
        "name": "futurepack:chemicals_a"
      },
      {
        "size": 2,
        "name": "futurepack:polymer"
      }
    ],
    "icon": {
      "name": "futurepack:energy_cell"
    },
    "enables": [
      {
        "name": "futurepack:energy_cell"
      }
    ],
	"rewards":
	[
	  {
        "size": 1,
        "name": "futurepack:energy_cell"
      },
	  {
        "size": 1,
        "name": "futurepack:energy_cell"
      }
	]
  },
  {
    "id": "log.battery.compact",
    "page": "logistic",
    "x": 6,
    "y": 0,
    "parents": [
      "log.battery.cell",
      "upgradeT3"
    ],
    "aspects": [
      "neonenergie",
      "morphologie",
      "logistik"
    ],
    "level": 2,
    "time": 1600,
    "neon": 230400,
    "support": 240,
    "expLvl": 200,
    "need": [
      {
        "size": 1,
        "name": "futurepack:energy_cell"
      },
      {
        "size": 4,
        "tag": "forge:dusts/obsidian"
      },
      {
        "size": 8,
        "name": "futurepack:parts_copper"
      },
      {
        "size": 2,
        "name": "futurepack:polymer"
      }
    ],
    "icon": {
      "name": "futurepack:compact_energy_cell"
    },
    "enables": [
      {
        "name": "futurepack:compact_energy_cell"
      }
    ],
	"rewards":
	[
	  {
        "size": 1,
        "name": "futurepack:compact_energy_cell"
      },
	  {
        "size": 1,
        "name": "futurepack:crystal_energy_cell"
      }
	]
  },
  {
    "id": "log.battery.crystal",
    "page": "logistic",
    "x": 7,
    "y": 0,
    "parents": [
      "log.battery.compact",
      "surveyscan.tyros"
    ],
    "aspects": [],
    "level": 0,
    "time": 1,
    "need": [
      {
        "size": 1,
        "name": "minecraft:command_block"
      }
    ],
    "icon": {
      "name": "futurepack:crystal_energy_cell"
    },
    "enables": [
      {
        "name": "futurepack:crystal_energy_cell"
      }
    ]
  }
]