{
  "type": "futurepack:maschin_shaped",
  "group": "futurepack",
  "pattern": [
    "VSV",
    "PTP",
    "VMV"
  ],
  "key": {
    "S": {
      "constant": "futurepack:copper_coil"
    },
    "V": {
      "constant": "futurepack:compositemetal"
    },
    "P": {
      "constant": "futurepack:fluid_tube"
    },
    "T": {
      "item": "futurepack:fluid_tank"
    },
    "M": {
      "constant": "futurepack:machineboard"
    }
  },
  "result": {
    "item": "futurepack:fluid_pump"
  }
}