{
  "replace": false,
  "values": [
    "futurepack:chip_logic",
	"futurepack:chip_ai",
	"futurepack:chip_transport",
	"futurepack:chip_navigation",
	"futurepack:chip_network",
	"futurepack:chip_industrie",
	"futurepack:chip_redstone",
	"futurepack:chip_support",
	"futurepack:chip_tactic",
	"futurepack:chip_ultimate",
	"futurepack:chip_damage_control"
  ]
}