{
  "type": "futurepack:research_shaped",
  "group": "futurepack",
  "pattern": [
    " N ",
    "HWG",
    " F "
  ],
  "key": {
    "N": {
      "item": "#cropNetherWart"
    },
    "H": {
      "data": 42,
      "item": "futurepack:spaceship"
    },
    "W": {
      "item": "#vanilla_bucket_of_water"
    },
    "G": {
      "item": "#gunpowder"
    },
    "F": {
      "item": "minecraft:fermented_spider_eye"
    }
  },
  "result": {
    "data": 53,
    "count": 32,
    "item": "futurepack:spaceship"
  }
}