{
    "coolDown":300,
    "entrys":
	[
		{ "id":"minecraft:vindicator", "count":2, "data":"{HandItems:[{id:\"minecraft:stone_axe\",Count:1},{}]}" }
    ],
    "message":{"translate":"dungeon.message.strange_experiment","text":"What are these strange creatures?"}
}