{
    "coolDown":300,
    "entrys":
	[
		{ "id":"minecraft:stray", "count":2, "data":"{HandItems:[{id:\"minecraft:bow\",Count:1},{}]}" },
		{ "id":"minecraft:stray", "count":2, "data":"{HandItems:[{id:\"minecraft:stone_sword\",Count:1},{}]}" }
    ],
    "message":{"translate":"dungeon.message.evenmore","text":"Oh no more of them!"}
}
 