{
	"parent": "block/cube",
	"textures": {
	"particle":"futurepack:blocks/machines/assembler_vorne_3",
	"down":"futurepack:blocks/deko/color_iron_black",
	"up":"futurepack:blocks/deko/color_iron_black",
	"north":"futurepack:blocks/machines/assembler_vorne_3",
	"east":"futurepack:blocks/machines/assembler_links_3",
	"south":"futurepack:blocks/deko/color_iron_black",
	"west":"futurepack:blocks/machines/assembler_rechts_3"      
	}
}
