{
  "parent": "block/slab",
  "textures": {
    "bottom": "futurepack:blocks/deko/color_iron_magenta",
    "top": "futurepack:blocks/deko/color_iron_magenta",
    "side": "futurepack:blocks/deko/color_iron_magenta"
  }
}