{
  "parent": "block/stairs",
  "textures": {
    "bottom": "futurepack:blocks/deko/gitter_yellow",
    "top": "futurepack:blocks/deko/gitter_yellow",
    "side": "futurepack:blocks/deko/gitter_yellow"
  }
}