{
  "parent": "block/slab",
  "textures": {
    "bottom": "futurepack:blocks/deko/luftung_lime",
    "top": "futurepack:blocks/deko/luftung_lime",
    "side": "futurepack:blocks/deko/luftung_lime"
  }
}