{
  "parent": "block/slab",
  "textures": {
    "bottom": "futurepack:blocks/deko/color_iron_purple",
    "top": "futurepack:blocks/deko/color_iron_purple",
    "side": "futurepack:blocks/deko/color_iron_purple"
  }
}