{
  "parent": "block/slab_top",
  "textures": {
    "bottom": "futurepack:blocks/deko/color_iron_pink",
    "top": "futurepack:blocks/deko/color_iron_pink",
    "side": "futurepack:blocks/deko/color_iron_pink"
  }
}