{
	"parent": "block/cube",
	
	"textures": {
		"texture0": "futurepack:blocks/terrain/crawler_nest0",
		"texture1": "futurepack:blocks/terrain/crawler_nest1",
		"texture2": "futurepack:blocks/terrain/crawler_nest2",
		"texture3": "futurepack:blocks/terrain/crawler_nest3",
		"texture4": "futurepack:blocks/terrain/crawler_nest4",
		"texture5": "futurepack:blocks/terrain/crawler_nest5",
		"particle": "futurepack:blocks/terrain/crawler_nest0"
	},
	"elements": [
		{
			"from": [ 5.0, 0.0, 5.0 ],
			"to": [ 11.0, 3.0, 11.0 ],
			"faces": {
				"down":	{ "uv": [ 0, 9, 6, 15  ], "texture": "#texture0", "rotation": 270},
				"up":	{ "uv": [ 0, 3, 6, 9  ], "texture": "#texture0", "rotation": 90},
				"north":{ "uv": [ 0, 0, 6, 3  ], "texture": "#texture0"},
				"south":{ "uv": [ 0, 0, 6, 3  ], "texture": "#texture0"},
				"west":	{ "uv": [ 0, 0, 6, 3  ], "texture": "#texture0"},
				"east":	{ "uv": [ 0, 0, 6, 3  ], "texture": "#texture0"}
			}
		},
		{
			"from": [ 4.0, 14.0, 4.0 ],
			"to": [ 12.0, 16.0, 12.0 ],
			"faces": {
				"down":	{ "uv": [ 0, 0, 8, 8  ], "texture": "#texture1", "rotation": 270},
				"up":	{ "uv": [ 6, 2, 14, 10  ], "texture": "#texture0", "rotation": 90},
				"north":{ "uv": [ 6, 0, 14, 2  ], "texture": "#texture0"},
				"south":{ "uv": [ 6, 0, 14, 2  ], "texture": "#texture0"},
				"west":	{ "uv": [ 6, 0, 14, 2  ], "texture": "#texture0"},
				"east":	{ "uv": [ 6, 0, 14, 2  ], "texture": "#texture0"}
			}
		},
		{
			"from": [ 2.0, 3.0, 2.0 ],
			"to": [ 14.0, 11.0, 14.0 ],
			"faces": {
				"down":	{ "uv": [ 0, 0, 12, 12  ], "texture": "#texture3", "rotation": 270},
				"up":	{ "uv": [ 0, 0, 12, 12  ], "texture": "#texture2", "rotation": 90},
				"north":{ "uv": [ 0, 8, 12, 16  ], "texture": "#texture1"},
				"south":{ "uv": [ 0, 8, 12, 16  ], "texture": "#texture1"},
				"west":	{ "uv": [ 0, 8, 12, 16  ], "texture": "#texture1"},
				"east":	{ "uv": [ 0, 8, 12, 16  ], "texture": "#texture1"}
			}
		},
		{
			"from": [ 3.0, 11.0, 3.0 ],
			"to": [ 13.0, 14.0, 13.0 ],
			"faces": {
				"down":	{ "uv": [ 0, 0, 10, 10  ], "texture": "#texture5", "rotation": 270},
				"up":	{ "uv": [ 0, 0, 10, 10  ], "texture": "#texture4", "rotation": 90},
				"north":{ "uv": [ 0, 12, 10, 15  ], "texture": "#texture3"},
				"south":{ "uv": [ 0, 12, 10, 15  ], "texture": "#texture2"},
				"west":	{ "uv": [ 6, 13, 16, 16  ], "texture": "#texture0"},
				"east":	{ "uv": [ 6, 10, 16, 13  ], "texture": "#texture0"}
			}
		},
		{
			"from": [ 11.0, 0.0, 11.0 ],
			"to": [ 12.0, 2.0, 12.0 ],
			"faces": {
				"down":	{ "uv": [ 0, 15, 1, 16  ], "texture": "#texture0", "rotation": 270},
				"up":	{ "uv": [ 0, 15, 1, 16  ], "texture": "#texture0", "rotation": 90},
				"north":{ "uv": [ 14, 0, 15, 2  ], "texture": "#texture0"},
				"south":{ "uv": [ 14, 0, 15, 2  ], "texture": "#texture0"},
				"west":	{ "uv": [ 14, 0, 15, 2  ], "texture": "#texture0"},
				"east":	{ "uv": [ 14, 0, 15, 2  ], "texture": "#texture0"}
			}
		},
		{
			"from": [ 11.0, 0.0, 4.0 ],
			"to": [ 12.0, 2.0, 5.0 ],
			"faces": {
				"down":	{ "uv": [ 0, 15, 1, 16  ], "texture": "#texture0", "rotation": 270},
				"up":	{ "uv": [ 0, 15, 1, 16  ], "texture": "#texture0", "rotation": 90},
				"north":{ "uv": [ 14, 0, 15, 2  ], "texture": "#texture0"},
				"south":{ "uv": [ 14, 0, 15, 2  ], "texture": "#texture0"},
				"west":	{ "uv": [ 14, 0, 15, 2  ], "texture": "#texture0"},
				"east":	{ "uv": [ 14, 0, 15, 2  ], "texture": "#texture0"}
			}
		},
		{
			"from": [ 4.0, 0.0, 11.0 ],
			"to": [ 5.0, 2.0, 12.0 ],
			"faces": {
				"down":	{ "uv": [ 0, 15, 1, 16  ], "texture": "#texture0", "rotation": 270},
				"up":	{ "uv": [ 0, 15, 1, 16  ], "texture": "#texture0", "rotation": 90},
				"north":{ "uv": [ 14, 0, 15, 2  ], "texture": "#texture0"},
				"south":{ "uv": [ 14, 0, 15, 2  ], "texture": "#texture0"},
				"west":	{ "uv": [ 14, 0, 15, 2  ], "texture": "#texture0"},
				"east":	{ "uv": [ 14, 0, 15, 2  ], "texture": "#texture0"}
			}
		},
		{
			"from": [ 4.0, 0.0, 4.0 ],
			"to": [ 5.0, 2.0, 5.0 ],
			"faces": {
				"down":	{ "uv": [ 0, 15, 1, 16  ], "texture": "#texture0", "rotation": 270},
				"up":	{ "uv": [ 0, 15, 1, 16  ], "texture": "#texture0", "rotation": 90},
				"north":{ "uv": [ 14, 0, 15, 2  ], "texture": "#texture0"},
				"south":{ "uv": [ 14, 0, 15, 2  ], "texture": "#texture0"},
				"west":	{ "uv": [ 14, 0, 15, 2  ], "texture": "#texture0"},
				"east":	{ "uv": [ 14, 0, 15, 2  ], "texture": "#texture0"}
			}
		},
		{
			"from": [ 10.0, 2.0, 10.0 ],
			"to": [ 13.0, 3.0, 13.0 ],
			"faces": {
				"down":	{ "uv": [ 8, 1, 11, 4  ], "texture": "#texture1", "rotation": 270},
				"up":	{ "uv": [ 8, 1, 11, 4  ], "texture": "#texture1", "rotation": 90},
				"north":{ "uv": [ 8, 0, 11, 1  ], "texture": "#texture1"},
				"south":{ "uv": [ 8, 0, 11, 1  ], "texture": "#texture1"},
				"west":	{ "uv": [ 1, 15, 4, 16  ], "texture": "#texture0"},
				"east":	{ "uv": [ 1, 15, 4, 16  ], "texture": "#texture0"}
			}
		},
		{
			"from": [ 3.0, 2.0, 10.0 ],
			"to": [ 6.0, 3.0, 13.0 ],
			"faces": {
				"down":	{ "uv": [ 8, 1, 11, 4  ], "texture": "#texture1", "rotation": 270},
				"up":	{ "uv": [ 8, 1, 11, 4  ], "texture": "#texture1", "rotation": 90},
				"north":{ "uv": [ 8, 0, 11, 1  ], "texture": "#texture1"},
				"south":{ "uv": [ 8, 0, 11, 1  ], "texture": "#texture1"},
				"west":	{ "uv": [ 1, 15, 4, 16  ], "texture": "#texture0"},
				"east":	{ "uv": [ 1, 15, 4, 16  ], "texture": "#texture0"}
			}
		},
		{
			"from": [ 10.0, 2.0, 3.0 ],
			"to": [ 13.0, 3.0, 6.0 ],
			"faces": {
				"down":	{ "uv": [ 8, 1, 11, 4  ], "texture": "#texture1", "rotation": 270},
				"up":	{ "uv": [ 8, 1, 11, 4  ], "texture": "#texture1", "rotation": 90},
				"north":{ "uv": [ 8, 0, 11, 1  ], "texture": "#texture1"},
				"south":{ "uv": [ 8, 0, 11, 1  ], "texture": "#texture1"},
				"west":	{ "uv": [ 1, 15, 4, 16  ], "texture": "#texture0"},
				"east":	{ "uv": [ 1, 15, 4, 16  ], "texture": "#texture0"}
			}
		},
		{
			"from": [ 3.0, 2.0, 3.0 ],
			"to": [ 6.0, 3.0, 6.0 ],
			"faces": {
				"down":	{ "uv": [ 8, 1, 11, 4  ], "texture": "#texture1", "rotation": 270},
				"up":	{ "uv": [ 8, 1, 11, 4  ], "texture": "#texture1", "rotation": 90},
				"north":{ "uv": [ 8, 0, 11, 1  ], "texture": "#texture1"},
				"south":{ "uv": [ 8, 0, 11, 1  ], "texture": "#texture1"},
				"west":	{ "uv": [ 1, 15, 4, 16  ], "texture": "#texture0"},
				"east":	{ "uv": [ 1, 15, 4, 16  ], "texture": "#texture0"}
			}
		}
	]
}