{
	"parent": "block/cube",
	"textures": {
		"particle":"futurepack:blocks/machines/gasturbine_front_w",
		"down":"futurepack:blocks/deko/color_iron_white",
		"up":"futurepack:blocks/deko/color_iron_white",
		"north":"futurepack:blocks/machines/gasturbine_front_w",
		"east":"futurepack:blocks/machines/gasturbine_east_w",
		"south":"futurepack:blocks/machines/gasturbine_back_w",
		"west":"futurepack:blocks/machines/gasturbine_west_w_off"
	}
}