{
	"parent": "block/cube",
	"textures": {
	"particle":"futurepack:blocks/machines/improve_components_front_gray",
	"down":"futurepack:blocks/deko/color_iron_light_gray",
	"up":"futurepack:blocks/machines/improve_components_top_gray",
	"north":"futurepack:blocks/machines/improve_components_front_gray",
	"east":"futurepack:blocks/machines/improve_components_left_gray",
	"south":"futurepack:blocks/deko/color_iron_light_gray",
	"west":"futurepack:blocks/machines/improve_components_rechts_gray"
	}
}
