{
	"parent": "block/cube",
	"textures": {
	"particle":"futurepack:blocks/machines/life_support/lss_b_front",
	"down":"futurepack:blocks/deko/color_iron_black",
	"up":"futurepack:blocks/machines/life_support/lss_b_top",
	"north":"futurepack:blocks/machines/life_support/lss_b_front",
	"east":"futurepack:blocks/machines/life_support/lss_b_side",
	"south":"futurepack:blocks/deko/color_iron_black",
	"west":"futurepack:blocks/machines/life_support/lss_b_side"      
	}
}
