{
  "parent": "block/orientable",
  "textures": {
    "top": "futurepack:blocks/pilzflechte_death",
    "front": "futurepack:blocks/pilzflechte_death",
    "side": "futurepack:blocks/pilzflechte_death"
  }
}