{
	"parent": "block/cube",
	"textures": {
		"particle":"futurepack:blocks/machines/stanze",
		"down":"futurepack:blocks/machines/industrieofen",
		"up":"futurepack:blocks/machines/stanze_top",
		"north":"futurepack:blocks/machines/stanze",
		"east":"futurepack:blocks/machines/stanze",
		"south":"futurepack:blocks/machines/stanze",
		"west":"futurepack:blocks/machines/stanze"
	}
}
