{
  "parent": "block/outer_stairs",
  "textures": {
    "bottom": "futurepack:blocks/terrain/planks_menelaus_mushroom",
    "top": "futurepack:blocks/terrain/planks_menelaus_mushroom",
    "side": "futurepack:blocks/terrain/planks_menelaus_mushroom"
  }
}