{
	"parent": "block/block",
	"textures": {
		"1": "futurepack:blocks/deko/kristallglass",
		"2": "futurepack:blocks/deko/color_iron_light_gray",
		"3": "futurepack:blocks/plasma",
		"particle": "futurepack:blocks/deko/kristallglass"
	},
	"elements": [
		{
			"name": "base",
			"from": [1, 1, 1],
			"to": [15, 16, 15],
			"rotation": {"angle": 0, "axis": "y", "origin": [9, 8, 9]},
			"faces": {
				"north": {"uv": [0, 0, 16, 16], "texture": "#1"},
				"east": {"uv": [0, 0, 16, 16], "texture": "#1"},
				"south": {"uv": [0, 0, 16, 16], "texture": "#1"},
				"west": {"uv": [0, 0, 16, 16], "texture": "#1"},
				"up": {"uv": [0, 0, 16, 16], "texture": "#1"},
				"down": {"uv": [0, 0, 16, 16], "texture": "#1"}
			}
		},
		{
			"name": "shine",
			"from": [7.5, 7.5, 7.5],
			"to": [8.5, 8.5, 8.5],
			"rotation": {"angle": 0, "axis": "y", "origin": [9, 8, 9]},
			"faces": {
				"north": {"uv": [0, 0, 16, 16], "texture": "#3"},
				"east": {"uv": [0, 0, 16, 16], "texture": "#3"},
				"south": {"uv": [0, 0, 16, 16], "texture": "#3"},
				"west": {"uv": [0, 0, 16, 16], "texture": "#3"},
				"up": {"uv": [0, 0, 16, 16], "texture": "#3"},
				"down": {"uv": [0, 0, 16, 16], "texture": "#3"}
			}
		},
		{
			"name": "top",
			"from": [2, 15.9, 4],
			"to": [4, 18, 12],
			"rotation": {"angle": 0, "axis": "y", "origin": [3, 17, 5]},
			"faces": {
				"north": {"uv": [0, 0, 0, 0], "texture": "#2"},
				"east": {"uv": [4, 2, 12, 4], "texture": "#2"},
				"south": {"uv": [0, 0, 0, 0], "texture": "#2"},
				"west": {"uv": [4, 2, 12, 4], "texture": "#2"},
				"up": {"uv": [2, 4, 4, 12], "texture": "#2"},
				"down": {"uv": [2, 4, 4, 12], "texture": "#2"}
			}
		},
		{
			"name": "top",
			"from": [2, 15.9, 2],
			"to": [14, 18, 4],
			"rotation": {"angle": 0, "axis": "y", "origin": [3, 17, 3]},
			"faces": {
				"north": {"uv": [2, 2, 14, 4], "texture": "#2"},
				"east": {"uv": [12, 2, 14, 4], "texture": "#2"},
				"south": {"uv": [2, 2, 14, 4], "texture": "#2"},
				"west": {"uv": [2, 2, 4, 4], "texture": "#2"},
				"up": {"uv": [2, 2, 14, 4], "texture": "#2"},
				"down": {"uv": [2, 2, 14, 4], "texture": "#2"}
			}
		},
		{
			"name": "top",
			"from": [2, 15.9, 12],
			"to": [14, 18, 14],
			"rotation": {"angle": 0, "axis": "y", "origin": [3, 17, 13]},
			"faces": {
				"north": {"uv": [2, 2, 14, 4], "texture": "#2"},
				"east": {"uv": [2, 2, 4, 4], "texture": "#2"},
				"south": {"uv": [2, 2, 14, 4], "texture": "#2"},
				"west": {"uv": [12, 2, 14, 4], "texture": "#2"},
				"up": {"uv": [2, 12, 14, 14], "texture": "#2"},
				"down": {"uv": [2, 12, 14, 14], "texture": "#2"}
			}
		},
		{
			"name": "top",
			"from": [12, 15.9, 4],
			"to": [14, 18, 12],
			"rotation": {"angle": 0, "axis": "y", "origin": [13, 17, 5]},
			"faces": {
				"north": {"uv": [0, 0, 0, 0], "texture": "#2"},
				"east": {"uv": [4, 2, 12, 4], "texture": "#2"},
				"south": {"uv": [0, 0, 0, 0], "texture": "#2"},
				"west": {"uv": [4, 2, 12, 4], "texture": "#2"},
				"up": {"uv": [12, 4, 14, 12], "texture": "#2"},
				"down": {"uv": [12, 4, 14, 12], "texture": "#2"}
			}
		}
	]
}