{
"parent": "block/block",
	"textures": {
		"texture0": "futurepack:blocks/machines/turrets/rocket_launcher0",
		"texture1": "futurepack:blocks/machines/turrets/rocket_launcher1",
		"texture2": "futurepack:blocks/machines/turrets/rocket_launcher2",
		"texture3": "futurepack:blocks/machines/turrets/rocket_launcher3",
		"texture4": "futurepack:blocks/machines/turrets/rocket_launcher4",
		"texture5": "futurepack:blocks/machines/turrets/rocket_launcher5",
		"particle": "futurepack:blocks/machines/turrets/rocket_launcher0"
	},
	"elements": [
		{
			"from": [ 0.0, 0.0, 0.0 ],
			"to": [ 16.0, 6.0, 16.0 ],
			"faces": {
				"down":	{ "uv": [ 0, 0, 16, 16  ], "texture": "#texture2", "rotation": 270},
				"up":	{ "uv": [ 0, 0, 16, 16  ], "texture": "#texture1", "rotation": 90},
				"north":{ "uv": [ 0, 0, 16, 6  ], "texture": "#texture0"},
				"south":{ "uv": [ 0, 0, 16, 6  ], "texture": "#texture0"},
				"west":	{ "uv": [ 0, 0, 16, 6  ], "texture": "#texture0"},
				"east":	{ "uv": [ 0, 0, 16, 6  ], "texture": "#texture0"}
			}
		},
		{
			"from": [ 2.0, 6.0, 2.0 ],
			"to": [ 14.0, 8.0, 14.0 ],
			"faces": {
				"down":	{ "uv": [ 0, 0, 12, 12  ], "texture": "#texture4", "rotation": 270},
				"up":	{ "uv": [ 0, 0, 12, 12  ], "texture": "#texture3", "rotation": 90},
				"north":{ "uv": [ 0, 8, 12, 10  ], "texture": "#texture0"},
				"south":{ "uv": [ 0, 6, 12, 8  ], "texture": "#texture0"},
				"west":	{ "uv": [ 0, 8, 12, 10  ], "texture": "#texture0"},
				"east":	{ "uv": [ 0, 6, 12, 8  ], "texture": "#texture0"}
			}
		},
		{
			"from": [ 6.0, 8.0, 11.0 ],
			"to": [ 10.0, 14.0, 12.0 ],
			"faces": {
				"down":	{ "uv": [ 9, 10, 10, 14  ], "texture": "#texture0", "rotation": 270},
				"up":	{ "uv": [ 9, 10, 10, 14  ], "texture": "#texture0", "rotation": 90},
				"north":{ "uv": [ 5, 10, 9, 16  ], "texture": "#texture0"},
				"south":{ "uv": [ 1, 10, 5, 16  ], "texture": "#texture0"},
				"west":	{ "uv": [ 0, 10, 1, 16  ], "texture": "#texture0"},
				"east":	{ "uv": [ 0, 10, 1, 16  ], "texture": "#texture0"}
			}
		},
		{
			"from": [ 6.0, 8.0, 4.0 ],
			"to": [ 10.0, 14.0, 5.0 ],
			"faces": {
				"down":	{ "uv": [ 9, 10, 10, 14  ], "texture": "#texture0", "rotation": 270},
				"up":	{ "uv": [ 9, 10, 10, 14  ], "texture": "#texture0", "rotation": 90},
				"north":{ "uv": [ 5, 10, 9, 16  ], "texture": "#texture0"},
				"south":{ "uv": [ 1, 10, 5, 16  ], "texture": "#texture0"},
				"west":	{ "uv": [ 0, 10, 1, 16  ], "texture": "#texture0"},
				"east":	{ "uv": [ 0, 10, 1, 16  ], "texture": "#texture0"}
			}
		},
		{
			"from": [ 6.0, 14.0, 10.0 ],
			"to": [ 10.0, 18.0, 13.0 ],
			"faces": {
				"down":	{ "uv": [ 10, 10, 13, 14  ], "texture": "#texture0", "rotation": 270},
				"up":	{ "uv": [ 12, 6, 15, 10  ], "texture": "#texture0", "rotation": 90},
				"north":{ "uv": [ 4, 12, 8, 16  ], "texture": "#texture3"},
				"south":{ "uv": [ 0, 12, 4, 16  ], "texture": "#texture3"},
				"west":	{ "uv": [ 12, 6, 15, 10  ], "texture": "#texture0"},
				"east":	{ "uv": [ 10, 10, 13, 14  ], "texture": "#texture0"}
			}
		},
		{
			"from": [ 6.0, 14.0, 3.0 ],
			"to": [ 10.0, 18.0, 6.0 ],
			"faces": {
				"down":	{ "uv": [ 10, 10, 13, 14  ], "texture": "#texture0", "rotation": 270},
				"up":	{ "uv": [ 12, 6, 15, 10  ], "texture": "#texture0", "rotation": 90},
				"north":{ "uv": [ 4, 12, 8, 16  ], "texture": "#texture3"},
				"south":{ "uv": [ 0, 12, 4, 16  ], "texture": "#texture3"},
				"west":	{ "uv": [ 12, 6, 15, 10  ], "texture": "#texture0"},
				"east":	{ "uv": [ 10, 10, 13, 14  ], "texture": "#texture0"}
			}
		},
		{
			"from": [ 2.0, 12.0, 6.0 ],
			"to": [ 14.0, 20.0, 10.0 ],
			"faces": {
				"down":	{ "uv": [ 12, 0, 16, 12  ], "texture": "#texture5", "rotation": 270},
				"up":	{ "uv": [ 12, 0, 16, 12  ], "texture": "#texture4", "rotation": 90},
				"north":{ "uv": [ 0, 8, 12, 16  ], "texture": "#texture5"},
				"south":{ "uv": [ 0, 0, 12, 8  ], "texture": "#texture5"},
				"west":	{ "uv": [ 12, 8, 16, 16  ], "texture": "#texture3"},
				"east":	{ "uv": [ 12, 0, 16, 8  ], "texture": "#texture3"}
			}
		}
	]
}