{
	"parent": "block/cube",
	"textures": {
		"particle":"futurepack:blocks/machines/zent_forne_g",
		"down":"futurepack:blocks/deko/color_iron_light_gray",
		"up":"futurepack:blocks/machines/zent_oben",
		"north":"futurepack:blocks/machines/zent_forne_g",
		"east":"futurepack:blocks/machines/zent_seiten_g_an",
		"south":"futurepack:blocks/machines/zent_seiten_g_an",
		"west":"futurepack:blocks/machines/zent_seiten_g_an"
	}
}