{
  "data": {
    "1-1-4": "0",
    "1-1-5": "0",
    "1-1-7": "1",
    "1-1-8": "1",
    "1-1-9": "1",
    "1-2-2": "0",
    "1-2-4": "0",
    "1-2-5": "0",
    "1-2-7": "1",
    "1-2-8": "1",
    "1-2-9": "1",
    "1-3-2": "0",
    "1-3-4": "0",
    "1-3-5": "0",
    "1-3-6": "2",
    "1-3-7": "2",
    "1-3-8": "2",
    "1-3-9": "2",
    "1-4-2": "0",
    "1-4-5": "1",
    "1-4-6": "1",
    "1-4-7": "1",
    "1-4-8": "1",
    "1-4-9": "1",
    "1-5-2": "0",
    "1-5-3": "1",
    "1-5-4": "1",
    "1-5-5": "1",
    "1-5-6": "1",
    "1-5-7": "1",
    "1-5-8": "1",
    "1-5-9": "1",
    "2-1-2": "3",
    "2-1-3": "4",
    "2-1-4": "4",
    "2-1-5": "4",
    "2-1-6": "4",
    "2-1-7": "4",
    "2-1-8": "4",
    "2-1-9": "5",
    "2-2-2": "0",
    "2-2-3": "0",
    "2-2-4": "0",
    "2-2-5": "0",
    "2-2-6": "0",
    "2-2-7": "0",
    "2-2-8": "6",
    "2-2-9": "0",
    "2-3-1": "0",
    "2-3-2": "0",
    "2-3-3": "0",
    "2-3-4": "0",
    "2-3-5": "0",
    "2-3-6": "0",
    "2-3-7": "0",
    "2-3-8": "7",
    "2-3-9": "0",
    "2-4-1": "0",
    "2-4-2": "0",
    "2-4-3": "0",
    "2-4-4": "0",
    "2-4-5": "0",
    "2-4-6": "0",
    "2-4-7": "0",
    "2-4-8": "6",
    "2-4-9": "0",
    "2-5-2": "0",
    "2-5-3": "3",
    "2-5-4": "4",
    "2-5-5": "4",
    "2-5-6": "4",
    "2-5-7": "4",
    "2-5-8": "4",
    "2-5-9": "5",
    "3-1-5": "8",
    "3-1-6": "8",
    "3-1-7": "8",
    "3-1-8": "8",
    "3-1-9": "8",
    "3-2-1": "0",
    "3-2-2": "0",
    "3-2-3": "0",
    "3-2-4": "0",
    "3-2-5": "0",
    "3-2-6": "0",
    "3-2-7": "0",
    "3-2-8": "6",
    "3-2-9": "0",
    "3-3-1": "0",
    "3-3-2": "0",
    "3-3-3": "0",
    "3-3-4": "0",
    "3-3-5": "0",
    "3-3-6": "0",
    "3-3-7": "0",
    "3-3-8": "7",
    "3-3-9": "0",
    "3-4-1": "0",
    "3-4-2": "0",
    "3-4-3": "0",
    "3-4-4": "0",
    "3-4-5": "0",
    "3-4-6": "0",
    "3-4-7": "0",
    "3-4-8": "6",
    "3-4-9": "0",
    "3-5-1": "0",
    "3-5-2": "0",
    "3-5-3": "0",
    "3-5-4": "0",
    "3-5-5": "8",
    "3-5-6": "8",
    "3-5-7": "8",
    "3-5-8": "8",
    "3-5-9": "8",
    "4-1-3": "3",
    "4-1-4": "4",
    "4-1-5": "4",
    "4-1-6": "4",
    "4-1-7": "4",
    "4-1-8": "4",
    "4-1-9": "5",
    "4-2-1": "0",
    "4-2-2": "0",
    "4-2-3": "0",
    "4-2-4": "0",
    "4-2-5": "0",
    "4-2-6": "0",
    "4-2-7": "0",
    "4-2-8": "6",
    "4-2-9": "0",
    "4-3-1": "0",
    "4-3-2": "0",
    "4-3-3": "0",
    "4-3-4": "0",
    "4-3-5": "0",
    "4-3-6": "0",
    "4-3-7": "0",
    "4-3-8": "7",
    "4-3-9": "0",
    "4-4-1": "0",
    "4-4-2": "0",
    "4-4-3": "0",
    "4-4-4": "0",
    "4-4-5": "0",
    "4-4-6": "0",
    "4-4-7": "0",
    "4-4-8": "6",
    "4-4-9": "0",
    "4-5-1": "0",
    "4-5-3": "3",
    "4-5-4": "4",
    "4-5-5": "4",
    "4-5-6": "4",
    "4-5-7": "4",
    "4-5-8": "4",
    "4-5-9": "5",
    "5-1-5": "1",
    "5-1-6": "1",
    "5-1-7": "1",
    "5-1-8": "1",
    "5-1-9": "1",
    "5-2-2": "0",
    "5-2-3": "0",
    "5-2-4": "0",
    "5-2-5": "0",
    "5-2-6": "0",
    "5-2-7": "1",
    "5-2-8": "1",
    "5-2-9": "1",
    "5-3-2": "0",
    "5-3-3": "0",
    "5-3-5": "0",
    "5-3-6": "0",
    "5-3-7": "2",
    "5-3-8": "2",
    "5-3-9": "2",
    "5-4-2": "0",
    "5-4-3": "0",
    "5-4-6": "1",
    "5-4-7": "1",
    "5-4-8": "1",
    "5-4-9": "1",
    "5-5-5": "1",
    "5-5-6": "1",
    "5-5-7": "1",
    "5-5-8": "1",
    "5-5-9": "1"
  },
  "inventorys": [],
  "doors": [
    {
      "facing": 3,
      "w": 3,
      "h": 3,
      "d": 1,
      "start": "2,2,9"
    }
  ],
  "stateMap": {
    "0": "minecraft:air:",
    "1": "futurepack:color_iron_gray:",
    "2": "futurepack:color_iron_purple:",
    "3": "futurepack:quantanium:down\u003dfalse;east\u003dfalse;north\u003dfalse;south\u003dtrue;up\u003dfalse;west\u003dfalse",
    "4": "futurepack:quantanium:down\u003dfalse;east\u003dfalse;north\u003dtrue;south\u003dtrue;up\u003dfalse;west\u003dfalse",
    "5": "futurepack:quantanium:down\u003dfalse;east\u003dfalse;north\u003dtrue;south\u003dfalse;up\u003dfalse;west\u003dfalse",
    "6": "futurepack:color_gitter_pane_gray:east\u003dtrue;north\u003dfalse;south\u003dfalse;waterlogged\u003dfalse;west\u003dtrue",
    "7": "futurepack:color_gitter_pane_purple:east\u003dtrue;north\u003dfalse;south\u003dfalse;waterlogged\u003dfalse;west\u003dtrue",
    "8": "futurepack:color_iron_black:"
  }
}