{
	"type": "futurepack:envia",
	"generator": {
		"biome_source": {
			"type": "futurepack:remapped",
			"biomeprovider": {
				"seed": 72,
				"large_biomes": false,
				"type": "minecraft:vanilla_layered"
			},
			"biome_map": {
			},
			"default_biome": "futurepack:envia"
		},
		"seed": 7272,
		"settings": "minecraft:overworld",
		"type": "minecraft:noise"
	}
}

