{
	"config": 
	{
		"feature": 
		{
			"config": 
			{
				"state": {"Name": "futurepack:dirt_m", "Properties": {}}
			},
			"type": "futurepack:menelaus_dirt"
		},
		"decorator": 
		{
			"config": 
			{
				"chance": 4
			},
			"type": "minecraft:chance"
		}
	},
	"type": "minecraft:decorated"
}